Worksheet 1: R Basics
…
Lets load the tibble() package. If you have this package installed this line of code will work. If not, you’ll get an error that says something like: ## Error in library("tibble"): there is no package called 'tibble'. If that’s the case (it probably is), then no worries - we can install it. To install a package run install.packages("tibble") in your console and R will download and install the package. (Remember this isn’t code that we want or need to store in our document, so run it in your console not in the .Rmd document.)

library(tibble)

The tibble package will allow you to create dataframes. Lets use some built in data in R to demonstrate this. This dataset contains the measurements in centimeters of sepal and petal width and length. Lets start by figuring out what kind of data iris is:

typeof(iris)

[1] "list"

We can see that iris is a list. But we want to use the tibble package to turn it into a dataframe. Thats very easy, we can simply run:

as_tibble(iris)

# A tibble: 150 × 5
   Sepal.Length Sepal.Width Petal.Length Petal.Width Species
          <dbl>       <dbl>        <dbl>       <dbl> <fct>  
 1          5.1         3.5          1.4         0.2 setosa 
 2          4.9         3            1.4         0.2 setosa 
 3          4.7         3.2          1.3         0.2 setosa 
 4          4.6         3.1          1.5         0.2 setosa 
 5          5           3.6          1.4         0.2 setosa 
 6          5.4         3.9          1.7         0.4 setosa 
 7          4.6         3.4          1.4         0.3 setosa 
 8          5           3.4          1.5         0.2 setosa 
 9          4.4         2.9          1.4         0.2 setosa 
10          4.9         3.1          1.5         0.1 setosa 
# ℹ 140 more rows
…
